#VRML V2.0 utf8
#kicad StepUp wrl exported

Shape {
    appearance Appearance {material DEF PIN-01 Material {
        ambientIntensity 0.271
        diffuseColor 0.824 0.820 0.781
        specularColor 0.328 0.258 0.172
        emissiveColor 0.0 0.0 0.0
        shininess 0.70
        transparency 0.0
        }
    }
}
Shape {
    appearance Appearance {material DEF MET-01 Material {
        ambientIntensity 0.249999
        diffuseColor 0.298 0.298 0.298
        specularColor 0.398 0.398 0.398
        emissiveColor 0.0 0.0 0.0
        shininess 0.056122
        transparency 0.0
        }
    }
}
Shape {
    appearance Appearance {material DEF PIN-02 Material {
        ambientIntensity 0.379
        diffuseColor 0.859 0.738 0.496
        specularColor 0.137 0.145 0.184
        emissiveColor 0.0 0.0 0.0
        shininess 0.40
        transparency 0.0
        }
    }
}
Shape {
    appearance Appearance {material DEF IC-BODY-EPOXY-04 Material {
        ambientIntensity 0.293
        diffuseColor 0.148 0.145 0.145
        specularColor 0.180 0.168 0.160
        emissiveColor 0.0 0.0 0.0
        shininess 0.35
        transparency 0.0
        }
    }
}
Shape {
    appearance Appearance {material DEF RES-SMD-01 Material {
        diffuseColor 0.082 0.086 0.094
        emissiveColor 0.000 0.000 0.000
        specularColor 0.066 0.063 0.063
        ambientIntensity 0.638
        transparency 0.0
        shininess 0.3
        }
    }
}
Shape {
    appearance Appearance {material DEF IC-BODY-EPOXY-01 Material {
        ambientIntensity 0.117
        diffuseColor 0.250 0.262 0.281
        specularColor 0.316 0.281 0.176
        emissiveColor 0.0 0.0 0.0
        shininess 0.25
        transparency 0.0
        }
    }
}
Shape {
    appearance Appearance {material DEF CAP-CERAMIC-05 Material {
        ambientIntensity 0.179
        diffuseColor 0.273 0.273 0.273
        specularColor 0.203 0.188 0.176
        emissiveColor 0.0 0.0 0.0
        shininess 0.15
        transparency 0.0
        }
    }
}
Shape {
    appearance Appearance {material DEF CAP-CERAMIC-06 Material {
        ambientIntensity 0.453
        diffuseColor 0.379 0.270 0.215
        specularColor 0.223 0.223 0.223
        emissiveColor 0.0 0.0 0.0
        shininess 0.15
        transparency 0.0
        }
    }
}
Shape {
    appearance Appearance {material DEF RES-THT-01 Material {
        ambientIntensity 0.149
        diffuseColor 0.883 0.711 0.492
        specularColor 0.043 0.121 0.281
        emissiveColor 0.0 0.0 0.0
        shininess 0.40
        transparency 0.0
        }
    }
}
Shape {
    appearance Appearance {material DEF PLASTIC-BLUE-01 Material {
        ambientIntensity 0.565
        diffuseColor 0.137 0.402 0.727
        specularColor 0.359 0.379 0.270
        emissiveColor 0.0 0.0 0.0
        shininess 0.25
        transparency 0.0
        }
    }
}
Shape {
    appearance Appearance {material DEF PLASTIC-GREEN-01 Material {
        ambientIntensity 0.315
        diffuseColor 0.340 0.680 0.445
        specularColor 0.176 0.105 0.195
        emissiveColor 0.0 0.0 0.0
        shininess 0.25
        transparency 0.0
        }
    }
}
Shape {
    appearance Appearance {material DEF PLASTIC-ORANGE-01 Material {
        ambientIntensity 0.284
        diffuseColor 0.809 0.426 0.148
        specularColor 0.039 0.102 0.145
        emissiveColor 0.0 0.0 0.0
        shininess 0.25
        transparency 0.0
        }
    }
}
Shape {
    appearance Appearance {material DEF RED-BODY Material {
        ambientIntensity 0.683
        diffuseColor 0.700 0.100 0.050
        emissiveColor 0.000 0.000 0.000
        specularColor 0.300 0.400 0.150
        shininess 0.25
        transparency 0.0
        }
    }
}
Shape {
    appearance Appearance {material DEF CAP-CERAMIC-02 Material {
        ambientIntensity 0.683
        diffuseColor 0.578 0.336 0.352
        specularColor 0.105 0.273 0.270
        emissiveColor 0.0 0.0 0.0
        shininess 0.25
        transparency 0.0
        }
    }
}
Shape {
    appearance Appearance {material DEF PLASTIC-YELLOW-01 Material {
        ambientIntensity 0.522
        diffuseColor 0.832 0.680 0.066
        specularColor 0.160 0.203 0.320
        emissiveColor 0.0 0.0 0.0
        shininess 0.25
        transparency 0.0
        }
    }
}
Shape {
    appearance Appearance {material DEF PLASTIC-WHITE-01 Material {
        ambientIntensity 0.494
        diffuseColor 0.895 0.891 0.813
        specularColor 0.047 0.055 0.109
        emissiveColor 0.0 0.0 0.0
        shininess 0.25
        transparency 0.0
        }
    }
}
Shape {
    appearance Appearance {material DEF IC-LABEL-01 Material {
        ambientIntensity 0.082
        diffuseColor 0.691 0.664 0.598
        specularColor 0.000 0.000 0.000
        emissiveColor 0.0 0.0 0.0
        shininess 0.01
        transparency 0.0
        }
    }
}
Shape {
    appearance Appearance {material DEF LED-RED Material {
        ambientIntensity 0.789
        diffuseColor 0.700 0.100 0.050
        emissiveColor 0.000 0.000 0.000
        specularColor 0.300 0.400 0.150
        shininess 0.125
        transparency 0.15
        }
    }
}
Shape {
    appearance Appearance {material DEF LED-GREEN Material {
        ambientIntensity 0.789
        diffuseColor 0.400 0.700 0.150
        emissiveColor 0.000 0.000 0.000
        specularColor 0.600 0.300 0.100
        shininess 0.05
        transparency 0.15
        }
    }
}
Shape {
    appearance Appearance {material DEF LED-BLUE Material {
        ambientIntensity 0.789
        diffuseColor 0.100 0.250 0.700
        emissiveColor 0.000 0.000 0.000
        specularColor 0.500 0.600 0.300
        shininess 0.125
        transparency 0.15
        }
    }
}
Shape {
    appearance Appearance {material DEF LED-YELLOW Material {
        ambientIntensity 0.522
        diffuseColor 0.98 0.840 0.066
        specularColor 0.160 0.203 0.320
        emissiveColor 0.0 0.0 0.0
        shininess 0.125
        transparency 0.15
        }
    }
}
Shape {
    appearance Appearance {material DEF LED-WHITE Material {
        ambientIntensity 0.494
        diffuseColor 0.895 0.891 0.813
        specularColor 0.047 0.055 0.109
        emissiveColor 0.0 0.0 0.0
        shininess 0.125
        transparency 0.15
        }
    }
}
Shape {
    appearance Appearance {material DEF LED-GREY Material {
        ambientIntensity 0.494
        diffuseColor 0.27 0.25 0.27
        specularColor 0.5 0.5 0.6
        emissiveColor 0.0 0.0 0.0
        shininess 0.35
        transparency 0.15
        }
    }
}
Shape {
    appearance Appearance {material DEF LED-BLACK Material {
        ambientIntensity 0.494
        diffuseColor 0.1 0.05 0.1
        specularColor 0.6 0.5 0.6
        emissiveColor 0.0 0.0 0.0
        shininess 0.5
        transparency 0.15
        }
    }
}
Shape {
    appearance Appearance {material DEF GLASS-19 Material {
        ambientIntensity 2.018212
        diffuseColor 0.400769 0.441922 0.459091
        specularColor 0.573887 0.649271 0.810811
        emissiveColor 0.000000 0.000000 0.000000
        shininess 0.127273
        transparency 0.37
        }
    }
}
Shape {
    appearance Appearance {material DEF GLASS-29 Material {
        ambientIntensity 0.379
        diffuseColor 0.859 0.738 0.496
        specularColor 0.137 0.145 0.184
        emissiveColor 0.0 0.0 0.0
        shininess 0.40
        transparency 0.39
        }
    }
}
Shape {
    appearance Appearance {material DEF GLASS-13 Material {
        ambientIntensity 0.250000
        diffuseColor 0.000000 0.631244 0.748016
        specularColor 0.915152 0.915152 0.915152
        emissiveColor 0.000000 0.000000 0.000000
        shininess 0.642424
        transparency 0.39
        }
    }
}
Shape {
    appearance Appearance {material DEF GLASS-GREEN Material {
        ambientIntensity 0.250000
        diffuseColor 0.000000 0.75 0.44
        specularColor 0.915152 0.915152 0.915152
        emissiveColor 0.000000 0.000000 0.000000
        shininess 0.642424
        transparency 0.39
        }
    }
}
Shape {
    appearance Appearance {material DEF GLASS-ORANGE Material {
        ambientIntensity 0.250000
        diffuseColor 0.75 0.44 0.000000
        specularColor 0.915152 0.915152 0.915152
        emissiveColor 0.000000 0.000000 0.000000
        shininess 0.642424
        transparency 0.39
        }
    }
}
Shape {
    appearance Appearance {material DEF BOARD-GREEN-02 Material {
        ambientIntensity 1
        diffuseColor 0.07 0.3 0.12
        specularColor 0.07 0.3 0.12
        emissiveColor 0.0 0.0 0.0
        shininess 0.40
        transparency 0.0
        }
    }
}
Shape {
    appearance Appearance {material DEF BOARD-BLUE-01 Material {
        ambientIntensity 1
        diffuseColor 0.07 0.12 0.3
        specularColor 0.07 0.12 0.3
        emissiveColor 0.0 0.0 0.0
        shininess 0.40
        transparency 0.0
        }
    }
}
Shape {
    appearance Appearance {material DEF BOARD-BLACK-03 Material {
        ambientIntensity 1
        diffuseColor 0.16 0.16 0.16
        specularColor 0.16 0.16 0.16
        emissiveColor 0.0 0.0 0.0
        shininess 0.40
        transparency 0.0
        }
    }
}
Shape {
    appearance Appearance {material DEF MET-ALUMINUM Material {
        ambientIntensity 0.256000
        diffuseColor 0.372322 0.371574 0.373173
        specularColor 0.556122 0.554201 0.556122
        emissiveColor 0.0 0.0 0.0
        shininess 0.127551
        transparency 0.0
        }
    }
}
Shape {
    appearance Appearance {material DEF MET-BRONZE Material {
        ambientIntensity 0.022727
        diffuseColor 0.714 0.4284 0.18144
        specularColor 0.393548 0.271906 0.166721
        emissiveColor 0.000000 0.000000 0.000000
        shininess 0.2
        transparency 0.0
        }
    }
}
Shape {
    appearance Appearance {material DEF MET-SILVER Material {
        ambientIntensity 0.022727
        diffuseColor 0.50754 0.50754 0.50754
        specularColor 0.508273 0.508273 0.508273
        emissiveColor 0.000000 0.000000 0.000000
        shininess 0.4
        transparency 0.0
        }
    }
}
Shape {
    appearance Appearance {material DEF MET-COPPER Material {
        ambientIntensity 0.022727
        diffuseColor 0.7038 0.27048 0.0828
        specularColor 0.780612 0.37 0.000000
        emissiveColor 0.000000 0.000000 0.000000
        shininess 0.2
        transparency 0.0
        }
    }
}
Shape { geometry IndexedFaceSet 
{ creaseAngle 0.50 coordIndex [0,1,2,-1,0,2,3,-1]
coord Coordinate { point [3.28346 2.14567 0,-1.28346 2.14566 0,-1.28346 2.14566 4.01574,3.28346 2.14567 4.01574]
}}
appearance Appearance{material USE IC-BODY-EPOXY-04 }}
Shape { geometry IndexedFaceSet 
{ creaseAngle 0.50 coordIndex [0,1,2,-1,0,2,3,-1]
coord Coordinate { point [-1.28346 2.14566 0,-1.28346 -0.807085 0,-1.28346 -0.807085 4.01574,-1.28346 2.14566 4.01574]
}}
appearance Appearance{material USE IC-BODY-EPOXY-04 }}
Shape { geometry IndexedFaceSet 
{ creaseAngle 0.50 coordIndex [0,1,2,-1,0,2,3,-1]
coord Coordinate { point [3.28346 -0.807085 0,3.28346 2.14567 0,3.28346 2.14567 4.01574,3.28346 -0.807085 4.01574]
}}
appearance Appearance{material USE IC-BODY-EPOXY-04 }}
Shape { geometry IndexedFaceSet 
{ creaseAngle 0.50 coordIndex [0,1,2,-1,0,3,1,-1]
coord Coordinate { point [-1.28346 2.14566 0,3.28346 -0.807085 0,-1.28346 -0.807085 0,3.28346 2.14567 0]
}}
appearance Appearance{material USE IC-BODY-EPOXY-04 }}
Shape { geometry IndexedFaceSet 
{ creaseAngle 0.50 coordIndex [0,1,2,-1,3,1,0,-1]
coord Coordinate { point [3.28346 -0.807085 4.01574,-1.28346 2.14566 4.01574,-1.28346 -0.807085 4.01574,3.28346 2.14567 4.01574]
}}
appearance Appearance{material USE IC-BODY-EPOXY-04 }}
Shape { geometry IndexedFaceSet 
{ creaseAngle 0.50 coordIndex [0,1,2,-1,3,2,1,-1,4,1,0,-1,5,3,1,-1,6,1,4,-1,7,5,1,-1,8,1,6,-1,9,7,1,-1,10,1,8,-1,11,9,1,-1,12,13,1,-1,12,1,10,-1,14,1,15,-1,14,11,1,-1,16,13,12,-1,17,14,15,-1,18,13,16,-1,19,17,15,-1,20,13,18,-1,21,19,15,-1,22,13,20,-1,23,21,15,-1,24,13,22,-1,25,23,15,-1,26,13,24,-1,27,25,15,-1,28,13,26,-1,29,27,15,-1,30,13,28,-1,31,29,15,-1,32,13,30,-1,33,31,15,-1,34,13,32,-1,35,33,15,-1,36,13,34,-1,37,35,15,-1,38,13,36,-1,39,37,15,-1,40,13,38,-1,41,39,15,-1,42,13,40,-1,43,41,15,-1,44,13,42,-1,45,43,15,-1,46,13,44,-1,47,45,15,-1,48,13,46,-1,49,47,15,-1,50,13,48,-1,51,49,15,-1,52,13,50,-1,53,51,15,-1,54,13,52,-1,55,53,15,-1,56,13,54,-1,57,55,15,-1,58,13,56,-1,59,57,15,-1,60,13,58,-1,61,59,15,-1,62,13,60,-1,63,61,15,-1,64,13,62,-1,65,63,15,-1,66,13,64,-1,67,65,15,-1,68,13,66,-1,69,67,15,-1,70,13,68,-1,71,69,15,-1,72,13,70,-1,73,71,15,-1,74,13,72,-1,75,73,15,-1,76,13,74,-1,77,13,76,-1,78,79,80,-1,78,81,79,-1,78,82,81,-1,78,83,82,-1,78,84,75,-1,78,85,84,-1,78,86,85,-1,78,87,86,-1,78,88,87,-1,78,89,88,-1,78,90,89,-1,78,91,90,-1,78,92,91,-1,78,93,92,-1,78,94,93,-1,78,95,94,-1,78,96,95,-1,78,97,96,-1,78,98,97,-1,78,99,98,-1,78,100,99,-1,78,101,100,-1,78,102,101,-1,78,103,102,-1,78,104,103,-1,78,105,104,-1,78,106,105,-1,78,75,15,-1,78,107,106,-1,78,108,107,-1,78,109,108,-1,78,110,109,-1,78,111,110,-1,78,112,111,-1,78,113,112,-1,78,114,113,-1,78,115,114,-1,78,116,115,-1,78,117,116,-1,78,118,117,-1,78,119,118,-1,78,120,119,-1,78,121,120,-1,78,122,121,-1,78,123,122,-1,78,124,123,-1,78,125,124,-1,78,126,125,-1,78,80,126,-1,78,13,83,-1,83,13,127,-1,127,13,128,-1,128,13,129,-1,129,13,77,-1]
coord Coordinate { point [-0.0728761 -0.807085 0.887819,3.28346 -0.807085 4.01574,-0.0780161 -0.807085 0.893089,-0.0834124 -0.807085 0.898096,-0.0680051 -0.807085 0.8823,-0.0890515 -0.807085 0.902828,-0.0634153 -0.807085 0.876544,-0.0949195 -0.807085 0.907272,-0.0591182 -0.807085 0.870567,-0.101002 -0.807085 0.911419,-0.0551243 -0.807085 0.864383,-0.107283 -0.807085 0.915258,-0.0514436 -0.807085 0.858008,3.28346 -0.807085 0,-0.113748 -0.807085 0.918778,-1.28346 -0.807085 4.01574,-0.0480852 -0.807085 0.851458,-0.120381 -0.807085 0.921972,-0.0450576 -0.807085 0.844748,-0.127164 -0.807085 0.924832,-0.0423681 -0.807085 0.837895,-0.134081 -0.807085 0.92735,-0.0400236 -0.807085 0.830917,-0.141116 -0.807085 0.929519,-0.0380299 -0.807085 0.823831,-0.14825 -0.807085 0.931336,-0.0363918 -0.807085 0.816654,-0.155465 -0.807085 0.932795,-0.0351135 -0.807085 0.809404,-0.162744 -0.807085 0.933892,-0.0341981 -0.807085 0.8021,-0.170069 -0.807085 0.934625,-0.033648 -0.807085 0.794759,-0.177421 -0.807085 0.934992,-0.0334645 -0.807085 0.7874,-0.184783 -0.807085 0.934992,-0.033648 -0.807085 0.780041,-0.192135 -0.807085 0.934625,-0.0341981 -0.807085 0.7727,-0.19946 -0.807085 0.933892,-0.0351135 -0.807085 0.765396,-0.206739 -0.807085 0.932795,-0.0363918 -0.807085 0.758146,-0.213954 -0.807085 0.931336,-0.0380299 -0.807085 0.750969,-0.221088 -0.807085 0.929519,-0.0400236 -0.807085 0.743883,-0.228123 -0.807085 0.92735,-0.0423681 -0.807085 0.736905,-0.23504 -0.807085 0.924832,-0.0450576 -0.807085 0.730052,-0.241823 -0.807085 0.921972,-0.0480852 -0.807085 0.723342,-0.248456 -0.807085 0.918778,-0.0514436 -0.807085 0.716792,-0.254921 -0.807085 0.915258,-0.0551243 -0.807085 0.710417,-0.261202 -0.807085 0.911419,-0.0591182 -0.807085 0.704233,-0.267284 -0.807085 0.907272,-0.0634153 -0.807085 0.698256,-0.273152 -0.807085 0.902828,-0.0680051 -0.807085 0.6925,-0.278792 -0.807085 0.898096,-0.0728761 -0.807085 0.686981,-0.284188 -0.807085 0.893089,-0.0780161 -0.807085 0.681711,-0.289328 -0.807085 0.887819,-0.0834124 -0.807085 0.676704,-0.294199 -0.807085 0.8823,-0.0890515 -0.807085 0.671972,-0.298789 -0.807085 0.876544,-0.0949195 -0.807085 0.667528,-0.303086 -0.807085 0.870567,-0.101002 -0.807085 0.663381,-0.30708 -0.807085 0.864383,-0.107283 -0.807085 0.659542,-0.113748 -0.807085 0.656022,-1.28346 -0.807085 0,-0.162744 -0.807085 0.640908,-0.170069 -0.807085 0.640175,-0.155465 -0.807085 0.642005,-0.14825 -0.807085 0.643464,-0.141116 -0.807085 0.645281,-0.31076 -0.807085 0.858008,-0.314119 -0.807085 0.851458,-0.317146 -0.807085 0.844748,-0.319836 -0.807085 0.837895,-0.32218 -0.807085 0.830917,-0.324174 -0.807085 0.823831,-0.325812 -0.807085 0.816654,-0.327091 -0.807085 0.809404,-0.328006 -0.807085 0.8021,-0.328556 -0.807085 0.794759,-0.328739 -0.807085 0.7874,-0.328556 -0.807085 0.780041,-0.328006 -0.807085 0.7727,-0.327091 -0.807085 0.765396,-0.325812 -0.807085 0.758146,-0.324174 -0.807085 0.750969,-0.32218 -0.807085 0.743883,-0.319836 -0.807085 0.736905,-0.317146 -0.807085 0.730052,-0.314119 -0.807085 0.723342,-0.31076 -0.807085 0.716792,-0.30708 -0.807085 0.710417,-0.303086 -0.807085 0.704233,-0.298789 -0.807085 0.698256,-0.294199 -0.807085 0.6925,-0.289328 -0.807085 0.686981,-0.284188 -0.807085 0.681711,-0.278792 -0.807085 0.676704,-0.273152 -0.807085 0.671972,-0.267284 -0.807085 0.667528,-0.261202 -0.807085 0.663381,-0.254921 -0.807085 0.659542,-0.248456 -0.807085 0.656022,-0.241823 -0.807085 0.652828,-0.23504 -0.807085 0.649968,-0.228123 -0.807085 0.64745,-0.221088 -0.807085 0.645281,-0.213954 -0.807085 0.643464,-0.206739 -0.807085 0.642005,-0.19946 -0.807085 0.640908,-0.192135 -0.807085 0.640175,-0.184783 -0.807085 0.639808,-0.177421 -0.807085 0.639808,-0.134081 -0.807085 0.64745,-0.127164 -0.807085 0.649968,-0.120381 -0.807085 0.652828]
}}
appearance Appearance{material USE IC-BODY-EPOXY-04 }}
Shape { geometry IndexedFaceSet 
{ creaseAngle 0.50 coordIndex [0,1,2,-1,2,1,3,-1,3,4,5,-1,1,4,3,-1,5,6,7,-1,4,6,5,-1,7,8,9,-1,6,8,7,-1,9,10,11,-1,8,10,9,-1,11,12,13,-1,10,12,11,-1,13,14,15,-1,12,14,13,-1,15,16,17,-1,14,16,15,-1,17,18,19,-1,16,18,17,-1,19,20,21,-1,18,20,19,-1,20,22,21,-1,21,22,23,-1,22,24,23,-1,23,24,25,-1,24,26,25,-1,25,26,27,-1,26,28,27,-1,27,28,29,-1,29,30,31,-1,28,30,29,-1,31,32,33,-1,30,32,31,-1,33,34,35,-1,32,34,33,-1,35,36,37,-1,34,36,35,-1,37,38,39,-1,36,38,37,-1,39,40,41,-1,38,40,39,-1,41,42,43,-1,40,42,41,-1,43,44,45,-1,42,44,43,-1,45,46,47,-1,47,46,48,-1,44,46,45,-1,46,49,48,-1,48,50,51,-1,49,50,48,-1,51,52,53,-1,50,52,51,-1,53,54,55,-1,52,54,53,-1,55,56,57,-1,54,56,55,-1,57,58,59,-1,59,58,60,-1,56,58,57,-1,58,61,60,-1,60,62,63,-1,63,62,64,-1,61,62,60,-1,62,65,64,-1,64,66,67,-1,65,66,64,-1,67,68,69,-1,66,68,67,-1,69,70,71,-1,71,70,72,-1,68,70,69,-1,72,73,74,-1,70,73,72,-1,73,75,74,-1,75,76,74,-1,74,76,77,-1,76,78,77,-1,77,78,79,-1,78,80,79,-1,79,80,81,-1,80,82,81,-1,81,82,83,-1,82,84,83,-1,83,84,85,-1,84,86,85,-1,85,86,87,-1,86,88,87,-1,87,88,89,-1,88,90,89,-1,89,90,91,-1,90,92,91,-1,91,92,93,-1,92,94,93,-1,93,94,95,-1,95,96,97,-1,94,96,95,-1,97,98,99,-1,96,98,97,-1,99,100,101,-1,98,100,99,-1,101,102,103,-1,103,102,104,-1,100,102,101,-1,104,105,106,-1,102,105,104,-1,105,107,106,-1,106,108,109,-1,107,108,106,-1,109,110,111,-1,108,110,109,-1,111,112,113,-1,110,112,111,-1,113,114,115,-1,112,114,113,-1,115,116,117,-1,114,116,115,-1,117,118,119,-1,116,118,117,-1,119,120,121,-1,118,120,119,-1,121,122,123,-1,120,122,121,-1,122,124,123,-1,123,124,125,-1,124,126,125,-1,125,126,127,-1,126,128,127,-1,127,128,129,-1,129,128,130,-1,128,131,130,-1,131,132,130,-1,130,132,133,-1,133,132,134,-1,132,135,134,-1,135,136,134,-1,134,136,137,-1,136,138,137,-1,137,138,139,-1,138,140,139,-1,139,140,141,-1,140,142,141,-1,141,142,143,-1,142,144,143,-1,143,144,145,-1,145,144,146,-1,144,147,146,-1,147,148,146,-1,146,148,149,-1,149,148,150,-1,148,151,150,-1,151,152,150,-1,150,152,153,-1,153,152,154,-1,152,155,154,-1,155,156,154,-1,154,156,157,-1,157,156,158,-1,156,159,158,-1,159,160,158,-1,158,160,161,-1,160,162,161,-1,161,162,163,-1,162,164,163,-1,163,164,165,-1,165,166,167,-1,164,166,165,-1,167,168,169,-1,166,168,167,-1,169,170,171,-1,168,170,169,-1,171,172,173,-1,170,172,171,-1,173,174,175,-1,172,174,173,-1,174,176,175,-1,175,176,177,-1,176,178,177,-1,177,178,179,-1,178,180,179,-1,179,180,181,-1,180,182,181,-1,181,182,183,-1,182,184,183,-1,183,184,185,-1,184,186,185,-1,185,186,187,-1,186,188,187,-1,187,188,189,-1,188,190,189,-1,189,190,191,-1,190,192,191,-1,191,192,193,-1,192,194,193,-1,193,194,195,-1,194,196,195,-1,195,196,197,-1,196,198,197,-1,197,198,199,-1,199,200,201,-1,198,200,199,-1,201,202,203,-1,200,202,201,-1,203,204,205,-1,202,204,203,-1,205,206,207,-1,204,206,205,-1,207,208,209,-1,206,208,207,-1,209,210,211,-1,208,210,209,-1,211,212,213,-1,210,212,211,-1,213,214,215,-1,212,214,213,-1,215,216,217,-1,214,216,215,-1,217,218,219,-1,216,218,217,-1,219,220,221,-1,218,220,219,-1,221,222,223,-1,220,222,221,-1,223,224,225,-1,222,224,223,-1,224,226,225,-1,225,226,227,-1,226,228,227,-1,227,228,229,-1,228,230,229,-1,229,230,231,-1,231,230,232,-1,230,233,232,-1,232,234,235,-1,233,234,232,-1,235,236,237,-1,234,236,235,-1,237,238,239,-1,236,238,237,-1,239,240,241,-1,241,240,242,-1,238,240,239,-1,240,243,242,-1,242,244,245,-1,245,244,246,-1,243,244,242,-1,244,247,246,-1,246,248,249,-1,247,248,246,-1,249,250,251,-1,248,250,249,-1,251,0,2,-1,250,0,251,-1]
coord Coordinate { point [-0.0334645 -0.807085 0.7874,-0.033648 -0.807085 0.794759,-0.0334645 -0.767715 0.7874,-0.033648 -0.767715 0.794759,-0.0341981 -0.807085 0.8021,-0.0341981 -0.767715 0.8021,-0.0351135 -0.807085 0.809404,-0.0351135 -0.767715 0.809404,-0.0363918 -0.807085 0.816654,-0.0363918 -0.767715 0.816654,-0.0380299 -0.807085 0.823831,-0.0380299 -0.767715 0.823831,-0.0400236 -0.807085 0.830917,-0.0400236 -0.767715 0.830917,-0.0423681 -0.807085 0.837895,-0.0423681 -0.767715 0.837895,-0.0450576 -0.807085 0.844748,-0.0450576 -0.767715 0.844748,-0.0480852 -0.807085 0.851458,-0.0480852 -0.767715 0.851458,-0.0514436 -0.807085 0.858008,-0.0514436 -0.767715 0.858008,-0.0551243 -0.807085 0.864383,-0.0551243 -0.767715 0.864383,-0.0591182 -0.807085 0.870567,-0.0591182 -0.767715 0.870567,-0.0634153 -0.807085 0.876544,-0.0634153 -0.767715 0.876544,-0.0680051 -0.807085 0.8823,-0.0680051 -0.767715 0.8823,-0.0728761 -0.807085 0.887819,-0.0728761 -0.767715 0.887819,-0.0780161 -0.807085 0.893089,-0.0780161 -0.767715 0.893089,-0.0834124 -0.807085 0.898096,-0.0834124 -0.767715 0.898096,-0.0890515 -0.807085 0.902828,-0.0890515 -0.767715 0.902828,-0.0949195 -0.807085 0.907272,-0.0949195 -0.767715 0.907272,-0.101002 -0.807085 0.911419,-0.101002 -0.767715 0.911419,-0.107283 -0.807085 0.915258,-0.107283 -0.767715 0.915258,-0.113748 -0.807085 0.918778,-0.113748 -0.767715 0.918778,-0.120381 -0.807085 0.921972,-0.120381 -0.767715 0.921972,-0.127164 -0.767715 0.924832,-0.127164 -0.807085 0.924832,-0.134081 -0.807085 0.92735,-0.134081 -0.767715 0.92735,-0.141116 -0.807085 0.929519,-0.141116 -0.767715 0.929519,-0.14825 -0.807085 0.931336,-0.14825 -0.767715 0.931336,-0.155465 -0.807085 0.932795,-0.155465 -0.767715 0.932795,-0.162744 -0.807085 0.933892,-0.162744 -0.767715 0.933892,-0.170069 -0.767715 0.934625,-0.170069 -0.807085 0.934625,-0.177421 -0.807085 0.934992,-0.177421 -0.767715 0.934992,-0.184783 -0.767715 0.934992,-0.184783 -0.807085 0.934992,-0.192135 -0.807085 0.934625,-0.192135 -0.767715 0.934625,-0.19946 -0.807085 0.933892,-0.19946 -0.767715 0.933892,-0.206739 -0.807085 0.932795,-0.206739 -0.767715 0.932795,-0.213954 -0.767715 0.931336,-0.213954 -0.807085 0.931336,-0.221088 -0.767715 0.929519,-0.221088 -0.807085 0.929519,-0.228123 -0.807085 0.92735,-0.228123 -0.767715 0.92735,-0.23504 -0.807085 0.924832,-0.23504 -0.767715 0.924832,-0.241823 -0.807085 0.921972,-0.241823 -0.767715 0.921972,-0.248456 -0.807085 0.918778,-0.248456 -0.767715 0.918778,-0.254921 -0.807085 0.915258,-0.254921 -0.767715 0.915258,-0.261202 -0.807085 0.911419,-0.261202 -0.767715 0.911419,-0.267284 -0.807085 0.907272,-0.267284 -0.767715 0.907272,-0.273152 -0.807085 0.902828,-0.273152 -0.767715 0.902828,-0.278792 -0.807085 0.898096,-0.278792 -0.767715 0.898096,-0.284188 -0.807085 0.893089,-0.284188 -0.767715 0.893089,-0.289328 -0.807085 0.887819,-0.289328 -0.767715 0.887819,-0.294199 -0.807085 0.8823,-0.294199 -0.767715 0.8823,-0.298789 -0.807085 0.876544,-0.298789 -0.767715 0.876544,-0.303086 -0.807085 0.870567,-0.303086 -0.767715 0.870567,-0.30708 -0.767715 0.864383,-0.30708 -0.807085 0.864383,-0.31076 -0.767715 0.858008,-0.31076 -0.807085 0.858008,-0.314119 -0.807085 0.851458,-0.314119 -0.767715 0.851458,-0.317146 -0.807085 0.844748,-0.317146 -0.767715 0.844748,-0.319836 -0.807085 0.837895,-0.319836 -0.767715 0.837895,-0.32218 -0.807085 0.830917,-0.32218 -0.767715 0.830917,-0.324174 -0.807085 0.823831,-0.324174 -0.767715 0.823831,-0.325812 -0.807085 0.816654,-0.325812 -0.767715 0.816654,-0.327091 -0.807085 0.809404,-0.327091 -0.767715 0.809404,-0.328006 -0.807085 0.8021,-0.328006 -0.767715 0.8021,-0.328556 -0.807085 0.794759,-0.328556 -0.767715 0.794759,-0.328739 -0.807085 0.7874,-0.328739 -0.767715 0.7874,-0.328556 -0.807085 0.780041,-0.328556 -0.767715 0.780041,-0.328006 -0.767715 0.7727,-0.328006 -0.807085 0.7727,-0.327091 -0.807085 0.765396,-0.327091 -0.767715 0.765396,-0.325812 -0.767715 0.758146,-0.325812 -0.807085 0.758146,-0.324174 -0.807085 0.750969,-0.324174 -0.767715 0.750969,-0.32218 -0.807085 0.743883,-0.32218 -0.767715 0.743883,-0.319836 -0.807085 0.736905,-0.319836 -0.767715 0.736905,-0.317146 -0.807085 0.730052,-0.317146 -0.767715 0.730052,-0.314119 -0.807085 0.723342,-0.314119 -0.767715 0.723342,-0.31076 -0.767715 0.716792,-0.31076 -0.807085 0.716792,-0.30708 -0.807085 0.710417,-0.30708 -0.767715 0.710417,-0.303086 -0.767715 0.704233,-0.303086 -0.807085 0.704233,-0.298789 -0.807085 0.698256,-0.298789 -0.767715 0.698256,-0.294199 -0.767715 0.6925,-0.294199 -0.807085 0.6925,-0.289328 -0.807085 0.686981,-0.289328 -0.767715 0.686981,-0.284188 -0.767715 0.681711,-0.284188 -0.807085 0.681711,-0.278792 -0.807085 0.676704,-0.278792 -0.767715 0.676704,-0.273152 -0.807085 0.671972,-0.273152 -0.767715 0.671972,-0.267284 -0.807085 0.667528,-0.267284 -0.767715 0.667528,-0.261202 -0.807085 0.663381,-0.261202 -0.767715 0.663381,-0.254921 -0.807085 0.659542,-0.254921 -0.767715 0.659542,-0.248456 -0.807085 0.656022,-0.248456 -0.767715 0.656022,-0.241823 -0.807085 0.652828,-0.241823 -0.767715 0.652828,-0.23504 -0.807085 0.649968,-0.23504 -0.767715 0.649968,-0.228123 -0.807085 0.64745,-0.228123 -0.767715 0.64745,-0.221088 -0.807085 0.645281,-0.221088 -0.767715 0.645281,-0.213954 -0.807085 0.643464,-0.213954 -0.767715 0.643464,-0.206739 -0.807085 0.642005,-0.206739 -0.767715 0.642005,-0.19946 -0.807085 0.640908,-0.19946 -0.767715 0.640908,-0.192135 -0.807085 0.640175,-0.192135 -0.767715 0.640175,-0.184783 -0.807085 0.639808,-0.184783 -0.767715 0.639808,-0.177421 -0.807085 0.639808,-0.177421 -0.767715 0.639808,-0.170069 -0.807085 0.640175,-0.170069 -0.767715 0.640175,-0.162744 -0.807085 0.640908,-0.162744 -0.767715 0.640908,-0.155465 -0.807085 0.642005,-0.155465 -0.767715 0.642005,-0.14825 -0.807085 0.643464,-0.14825 -0.767715 0.643464,-0.141116 -0.807085 0.645281,-0.141116 -0.767715 0.645281,-0.134081 -0.807085 0.64745,-0.134081 -0.767715 0.64745,-0.127164 -0.807085 0.649968,-0.127164 -0.767715 0.649968,-0.120381 -0.807085 0.652828,-0.120381 -0.767715 0.652828,-0.113748 -0.807085 0.656022,-0.113748 -0.767715 0.656022,-0.107283 -0.807085 0.659542,-0.107283 -0.767715 0.659542,-0.101002 -0.807085 0.663381,-0.101002 -0.767715 0.663381,-0.0949195 -0.807085 0.667528,-0.0949195 -0.767715 0.667528,-0.0890515 -0.807085 0.671972,-0.0890515 -0.767715 0.671972,-0.0834124 -0.807085 0.676704,-0.0834124 -0.767715 0.676704,-0.0780161 -0.807085 0.681711,-0.0780161 -0.767715 0.681711,-0.0728761 -0.807085 0.686981,-0.0728761 -0.767715 0.686981,-0.0680051 -0.807085 0.6925,-0.0680051 -0.767715 0.6925,-0.0634153 -0.807085 0.698256,-0.0634153 -0.767715 0.698256,-0.0591182 -0.807085 0.704233,-0.0591182 -0.767715 0.704233,-0.0551243 -0.807085 0.710417,-0.0551243 -0.767715 0.710417,-0.0514436 -0.767715 0.716792,-0.0514436 -0.807085 0.716792,-0.0480852 -0.807085 0.723342,-0.0480852 -0.767715 0.723342,-0.0450576 -0.807085 0.730052,-0.0450576 -0.767715 0.730052,-0.0423681 -0.807085 0.736905,-0.0423681 -0.767715 0.736905,-0.0400236 -0.807085 0.743883,-0.0400236 -0.767715 0.743883,-0.0380299 -0.767715 0.750969,-0.0380299 -0.807085 0.750969,-0.0363918 -0.807085 0.758146,-0.0363918 -0.767715 0.758146,-0.0351135 -0.767715 0.765396,-0.0351135 -0.807085 0.765396,-0.0341981 -0.807085 0.7727,-0.0341981 -0.767715 0.7727,-0.033648 -0.807085 0.780041,-0.033648 -0.767715 0.780041]
}}
appearance Appearance{material USE IC-BODY-EPOXY-04 }}
Shape { geometry IndexedFaceSet 
{ creaseAngle 0.50 coordIndex [0,1,2,-1,3,1,0,-1,1,4,2,-1,5,6,7,-1,8,6,9,-1,10,6,8,-1,11,6,10,-1,12,6,13,-1,2,6,12,-1,14,6,15,-1,16,6,14,-1,17,6,18,-1,19,6,20,-1,21,6,22,-1,23,6,24,-1,25,6,26,-1,27,6,23,-1,28,6,27,-1,29,6,5,-1,9,6,30,-1,24,6,31,-1,4,6,2,-1,31,6,16,-1,32,6,33,-1,34,6,35,-1,13,6,36,-1,26,6,34,-1,15,6,29,-1,20,6,21,-1,18,6,25,-1,36,6,37,-1,38,6,17,-1,39,6,38,-1,40,6,39,-1,35,6,41,-1,42,6,40,-1,43,6,42,-1,44,6,43,-1,45,6,44,-1,37,6,11,-1,46,6,45,-1,47,6,46,-1,48,6,47,-1,49,6,48,-1,50,6,49,-1,41,6,51,-1,52,6,50,-1,53,6,52,-1,54,6,53,-1,55,6,54,-1,56,6,55,-1,57,6,56,-1,58,6,57,-1,59,6,58,-1,60,6,59,-1,61,6,60,-1,62,6,61,-1,63,6,62,-1,30,6,28,-1,64,6,63,-1,65,6,64,-1,66,6,65,-1,67,6,66,-1,68,6,67,-1,69,6,68,-1,70,6,69,-1,51,6,32,-1,71,6,70,-1,72,6,71,-1,73,6,72,-1,74,6,73,-1,75,6,19,-1,76,6,74,-1,33,6,75,-1,77,6,76,-1,78,6,77,-1,79,6,78,-1,7,6,79,-1,80,18,81,-1,17,18,80,-1,82,83,84,-1,85,29,5,-1,86,29,85,-1,87,29,86,-1,82,26,83,-1,25,26,82,-1,34,88,89,-1,34,90,88,-1,91,92,93,-1,34,35,90,-1,94,15,29,-1,95,15,94,-1,93,15,95,-1,92,15,93,-1,35,96,97,-1,35,41,96,-1,98,99,100,-1,101,102,103,-1,41,51,101,-1,101,51,102,-1,100,31,16,-1,104,31,99,-1,99,31,100,-1,105,24,31,-1,106,107,108,-1,51,107,106,-1,51,32,107,-1,109,30,28,-1,110,75,111,-1,33,75,110,-1,75,112,113,-1,75,19,112,-1,114,19,115,-1,112,19,114,-1,116,37,11,-1,117,36,37,-1,118,20,119,-1,19,20,118,-1,120,13,36,-1,20,121,122,-1,20,123,121,-1,124,123,125,-1,121,123,124,-1,20,21,123,-1]
coord Coordinate { point [-0.0591182 -0.767715 0.870567,-0.0680051 -0.767715 0.8823,-0.0551243 -0.767715 0.864383,-0.0634153 -0.767715 0.876544,-0.0728761 -0.767715 0.887819,-0.134081 -0.767715 0.64745,-0.0780161 -0.767715 0.893089,-0.141116 -0.767715 0.645281,-0.033648 -0.767715 0.794759,-0.0334645 -0.767715 0.7874,-0.0341981 -0.767715 0.8021,-0.0351135 -0.767715 0.809404,-0.0514436 -0.767715 0.858008,-0.0480852 -0.767715 0.851458,-0.0680051 -0.767715 0.6925,-0.0728761 -0.767715 0.686981,-0.0634153 -0.767715 0.698256,-0.327091 -0.767715 0.809404,-0.32218 -0.767715 0.830917,-0.14825 -0.767715 0.931336,-0.127164 -0.767715 0.924832,-0.0890515 -0.767715 0.902828,-0.0834124 -0.767715 0.898096,-0.0380299 -0.767715 0.750969,-0.0400236 -0.767715 0.743883,-0.319836 -0.767715 0.837895,-0.30708 -0.767715 0.864383,-0.0363918 -0.767715 0.758146,-0.0351135 -0.767715 0.765396,-0.107283 -0.767715 0.659542,-0.033648 -0.767715 0.780041,-0.0450576 -0.767715 0.730052,-0.213954 -0.767715 0.931336,-0.206739 -0.767715 0.932795,-0.303086 -0.767715 0.870567,-0.284188 -0.767715 0.893089,-0.0423681 -0.767715 0.837895,-0.0380299 -0.767715 0.823831,-0.328006 -0.767715 0.8021,-0.328556 -0.767715 0.794759,-0.328739 -0.767715 0.7874,-0.267284 -0.767715 0.907272,-0.328556 -0.767715 0.780041,-0.328006 -0.767715 0.7727,-0.327091 -0.767715 0.765396,-0.325812 -0.767715 0.758146,-0.324174 -0.767715 0.750969,-0.32218 -0.767715 0.743883,-0.319836 -0.767715 0.736905,-0.317146 -0.767715 0.730052,-0.314119 -0.767715 0.723342,-0.241823 -0.767715 0.921972,-0.31076 -0.767715 0.716792,-0.30708 -0.767715 0.710417,-0.303086 -0.767715 0.704233,-0.298789 -0.767715 0.698256,-0.294199 -0.767715 0.6925,-0.289328 -0.767715 0.686981,-0.284188 -0.767715 0.681711,-0.278792 -0.767715 0.676704,-0.273152 -0.767715 0.671972,-0.267284 -0.767715 0.667528,-0.261202 -0.767715 0.663381,-0.254921 -0.767715 0.659542,-0.248456 -0.767715 0.656022,-0.241823 -0.767715 0.652828,-0.23504 -0.767715 0.649968,-0.228123 -0.767715 0.64745,-0.221088 -0.767715 0.645281,-0.213954 -0.767715 0.643464,-0.206739 -0.767715 0.642005,-0.19946 -0.767715 0.640908,-0.192135 -0.767715 0.640175,-0.184783 -0.767715 0.639808,-0.177421 -0.767715 0.639808,-0.184783 -0.767715 0.934992,-0.170069 -0.767715 0.640175,-0.162744 -0.767715 0.640908,-0.155465 -0.767715 0.642005,-0.14825 -0.767715 0.643464,-0.325812 -0.767715 0.816654,-0.324174 -0.767715 0.823831,-0.317146 -0.767715 0.844748,-0.31076 -0.767715 0.858008,-0.314119 -0.767715 0.851458,-0.127164 -0.767715 0.649968,-0.120381 -0.767715 0.652828,-0.113748 -0.767715 0.656022,-0.294199 -0.767715 0.8823,-0.298789 -0.767715 0.876544,-0.289328 -0.767715 0.887819,-0.0834124 -0.767715 0.676704,-0.0780161 -0.767715 0.681711,-0.0890515 -0.767715 0.671972,-0.101002 -0.767715 0.663381,-0.0949195 -0.767715 0.667528,-0.273152 -0.767715 0.902828,-0.278792 -0.767715 0.898096,-0.0551243 -0.767715 0.710417,-0.0514436 -0.767715 0.716792,-0.0591182 -0.767715 0.704233,-0.261202 -0.767715 0.911419,-0.248456 -0.767715 0.918778,-0.254921 -0.767715 0.915258,-0.0480852 -0.767715 0.723342,-0.0423681 -0.767715 0.736905,-0.23504 -0.767715 0.924832,-0.221088 -0.767715 0.929519,-0.228123 -0.767715 0.92735,-0.0341981 -0.767715 0.7727,-0.19946 -0.767715 0.933892,-0.192135 -0.767715 0.934625,-0.170069 -0.767715 0.934625,-0.177421 -0.767715 0.934992,-0.162744 -0.767715 0.933892,-0.155465 -0.767715 0.932795,-0.0363918 -0.767715 0.816654,-0.0400236 -0.767715 0.830917,-0.141116 -0.767715 0.929519,-0.134081 -0.767715 0.92735,-0.0450576 -0.767715 0.844748,-0.113748 -0.767715 0.918778,-0.120381 -0.767715 0.921972,-0.0949195 -0.767715 0.907272,-0.107283 -0.767715 0.915258,-0.101002 -0.767715 0.911419]
}}
appearance Appearance{material USE IC-BODY-EPOXY-04 }}
Shape { geometry IndexedFaceSet 
{ creaseAngle 0.50 coordIndex [0,1,2,-1,3,1,0,-1,4,0,2,-1,5,6,4,-1,5,4,7,-1,8,7,4,-1,8,4,2,-1,9,7,8,-1,10,11,9,-1,10,9,8,-1]
coord Coordinate { point [0.098425 0.059055 0.07874,-0.098425 0.059055 0,-0.098425 0.059055 0.3937,0.098425 0.059055 0,0.901573 0.059055 0.07874,1.09842 0.059055 0,0.901573 0.059055 0,1.09842 0.059055 0.07874,2.09842 0.059055 0.3937,1.90157 0.059055 0.07874,2.09842 0.059055 0,1.90157 0.059055 0]
}}
appearance Appearance{material USE PIN-01 }}
Shape { geometry IndexedFaceSet 
{ creaseAngle 0.50 coordIndex [0,1,2,-1,0,2,3,-1]
coord Coordinate { point [-0.098425 0.059055 0,0.098425 0.059055 0,0.098425 0.059055 -1.61417,-0.098425 0.059055 -1.61417]
}}
appearance Appearance{material USE PIN-01 }}
Shape { geometry IndexedFaceSet 
{ creaseAngle 0.50 coordIndex [0,1,2,-1,2,1,3,-1]
coord Coordinate { point [0.098425 -0.059055 0,0.098425 0.059055 0,0.098425 -0.059055 0.07874,0.098425 0.059055 0.07874]
}}
appearance Appearance{material USE PIN-01 }}
Shape { geometry IndexedFaceSet 
{ creaseAngle 0.50 coordIndex [0,1,2,-1,2,1,3,-1]
coord Coordinate { point [0.098425 0.059055 0.07874,0.901573 0.059055 0.07874,0.098425 -0.059055 0.07874,0.901573 -0.059055 0.07874]
}}
appearance Appearance{material USE PIN-01 }}
Shape { geometry IndexedFaceSet 
{ creaseAngle 0.50 coordIndex [0,1,2,-1,2,1,3,-1]
coord Coordinate { point [0.901573 0.059055 0,0.901573 -0.059055 0,0.901573 0.059055 0.07874,0.901573 -0.059055 0.07874]
}}
appearance Appearance{material USE PIN-01 }}
Shape { geometry IndexedFaceSet 
{ creaseAngle 0.50 coordIndex [0,1,2,-1,0,2,3,-1]
coord Coordinate { point [0.901573 0.059055 0,1.09842 0.059055 0,1.09842 0.059055 -1.61417,0.901573 0.059055 -1.61417]
}}
appearance Appearance{material USE PIN-01 }}
Shape { geometry IndexedFaceSet 
{ creaseAngle 0.50 coordIndex [0,1,2,-1,2,1,3,-1]
coord Coordinate { point [1.09842 -0.059055 0,1.09842 0.059055 0,1.09842 -0.059055 0.07874,1.09842 0.059055 0.07874]
}}
appearance Appearance{material USE PIN-01 }}
Shape { geometry IndexedFaceSet 
{ creaseAngle 0.50 coordIndex [0,1,2,-1,2,1,3,-1]
coord Coordinate { point [1.09842 0.059055 0.07874,1.90157 0.059055 0.07874,1.09842 -0.059055 0.07874,1.90157 -0.059055 0.07874]
}}
appearance Appearance{material USE PIN-01 }}
Shape { geometry IndexedFaceSet 
{ creaseAngle 0.50 coordIndex [0,1,2,-1,0,2,3,-1]
coord Coordinate { point [1.90157 0.059055 0,1.90157 -0.059055 0,1.90157 -0.059055 0.07874,1.90157 0.059055 0.07874]
}}
appearance Appearance{material USE PIN-01 }}
Shape { geometry IndexedFaceSet 
{ creaseAngle 0.50 coordIndex [0,1,2,-1,2,1,3,-1]
coord Coordinate { point [1.90157 0.059055 0,2.09842 0.059055 0,1.90157 0.059055 -1.61417,2.09842 0.059055 -1.61417]
}}
appearance Appearance{material USE PIN-01 }}
Shape { geometry IndexedFaceSet 
{ creaseAngle 0.50 coordIndex [0,1,2,-1,0,2,3,-1]
coord Coordinate { point [2.09842 -0.059055 0,2.09842 0.059055 0,2.09842 0.059055 0.3937,2.09842 -0.059055 0.3937]
}}
appearance Appearance{material USE PIN-01 }}
Shape { geometry IndexedFaceSet 
{ creaseAngle 0.50 coordIndex [0,1,2,-1,0,2,3,-1]
coord Coordinate { point [2.09842 0.059055 0.3937,-0.098425 0.059055 0.3937,-0.098425 -0.059055 0.3937,2.09842 -0.059055 0.3937]
}}
appearance Appearance{material USE PIN-01 }}
Shape { geometry IndexedFaceSet 
{ creaseAngle 0.50 coordIndex [0,1,2,-1,0,2,3,-1]
coord Coordinate { point [-0.098425 0.059055 0,-0.098425 -0.059055 0,-0.098425 -0.059055 0.3937,-0.098425 0.059055 0.3937]
}}
appearance Appearance{material USE PIN-01 }}
Shape { geometry IndexedFaceSet 
{ creaseAngle 0.50 coordIndex [0,1,2,-1,0,2,3,-1]
coord Coordinate { point [0.098425 0.059055 0,0.098425 -0.059055 0,0.098425 -0.059055 -1.61417,0.098425 0.059055 -1.61417]
}}
appearance Appearance{material USE PIN-01 }}
Shape { geometry IndexedFaceSet 
{ creaseAngle 0.50 coordIndex [0,1,2,-1,0,2,3,-1]
coord Coordinate { point [-0.098425 -0.059055 0,-0.098425 0.059055 0,-0.098425 0.059055 -1.61417,-0.098425 -0.059055 -1.61417]
}}
appearance Appearance{material USE PIN-01 }}
Shape { geometry IndexedFaceSet 
{ creaseAngle 0.50 coordIndex [0,1,2,-1,3,1,0,-1]
coord Coordinate { point [-0.098425 -0.059055 -1.61417,0.098425 0.059055 -1.61417,0.098425 -0.059055 -1.61417,-0.098425 0.059055 -1.61417]
}}
appearance Appearance{material USE PIN-01 }}
Shape { geometry IndexedFaceSet 
{ creaseAngle 0.50 coordIndex [0,1,2,-1,3,1,0,-1,4,0,2,-1,5,6,4,-1,5,4,7,-1,8,7,4,-1,8,4,2,-1,9,7,8,-1,10,11,9,-1,10,9,8,-1]
coord Coordinate { point [1.90157 -0.059055 0.07874,2.09842 -0.059055 0,2.09842 -0.059055 0.3937,1.90157 -0.059055 0,1.09842 -0.059055 0.07874,0.901573 -0.059055 0,1.09842 -0.059055 0,0.901573 -0.059055 0.07874,-0.098425 -0.059055 0.3937,0.098425 -0.059055 0.07874,-0.098425 -0.059055 0,0.098425 -0.059055 0]
}}
appearance Appearance{material USE PIN-01 }}
Shape { geometry IndexedFaceSet 
{ creaseAngle 0.50 coordIndex [0,1,2,-1,0,2,3,-1]
coord Coordinate { point [0.901573 -0.059055 0,0.901573 0.059055 0,0.901573 0.059055 -1.61417,0.901573 -0.059055 -1.61417]
}}
appearance Appearance{material USE PIN-01 }}
Shape { geometry IndexedFaceSet 
{ creaseAngle 0.50 coordIndex [0,1,2,-1,0,2,3,-1]
coord Coordinate { point [1.09842 0.059055 0,1.09842 -0.059055 0,1.09842 -0.059055 -1.61417,1.09842 0.059055 -1.61417]
}}
appearance Appearance{material USE PIN-01 }}
Shape { geometry IndexedFaceSet 
{ creaseAngle 0.50 coordIndex [0,1,2,-1,3,1,0,-1]
coord Coordinate { point [0.901573 -0.059055 -1.61417,1.09842 0.059055 -1.61417,1.09842 -0.059055 -1.61417,0.901573 0.059055 -1.61417]
}}
appearance Appearance{material USE PIN-01 }}
Shape { geometry IndexedFaceSet 
{ creaseAngle 0.50 coordIndex [0,1,2,-1,2,1,3,-1]
coord Coordinate { point [1.90157 -0.059055 0,1.90157 0.059055 0,1.90157 -0.059055 -1.61417,1.90157 0.059055 -1.61417]
}}
appearance Appearance{material USE PIN-01 }}
Shape { geometry IndexedFaceSet 
{ creaseAngle 0.50 coordIndex [0,1,2,-1,2,1,3,-1]
coord Coordinate { point [2.09842 0.059055 0,2.09842 -0.059055 0,2.09842 0.059055 -1.61417,2.09842 -0.059055 -1.61417]
}}
appearance Appearance{material USE PIN-01 }}
Shape { geometry IndexedFaceSet 
{ creaseAngle 0.50 coordIndex [0,1,2,-1,2,1,3,-1]
coord Coordinate { point [1.90157 0.059055 -1.61417,2.09842 0.059055 -1.61417,1.90157 -0.059055 -1.61417,2.09842 -0.059055 -1.61417]
}}
appearance Appearance{material USE PIN-01 }}
Shape { geometry IndexedFaceSet 
{ creaseAngle 0.50 coordIndex [0,1,2,-1,0,2,3,-1]
coord Coordinate { point [0.098425 -0.059055 0,-0.098425 -0.059055 0,-0.098425 -0.059055 -1.61417,0.098425 -0.059055 -1.61417]
}}
appearance Appearance{material USE PIN-01 }}
Shape { geometry IndexedFaceSet 
{ creaseAngle 0.50 coordIndex [0,1,2,-1,2,1,3,-1]
coord Coordinate { point [2.09842 -0.059055 0,1.90157 -0.059055 0,2.09842 -0.059055 -1.61417,1.90157 -0.059055 -1.61417]
}}
appearance Appearance{material USE PIN-01 }}
Shape { geometry IndexedFaceSet 
{ creaseAngle 0.50 coordIndex [0,1,2,-1,0,2,3,-1]
coord Coordinate { point [1.09842 -0.059055 0,0.901573 -0.059055 0,0.901573 -0.059055 -1.61417,1.09842 -0.059055 -1.61417]
}}
appearance Appearance{material USE PIN-01 }}
Shape { geometry IndexedFaceSet 
{ creaseAngle 0.50 coordIndex [0,1,2,-1,2,1,3,-1,3,4,5,-1,1,4,3,-1,5,6,7,-1,4,6,5,-1,7,8,9,-1,6,8,7,-1,9,10,11,-1,8,10,9,-1,11,12,13,-1,10,12,11,-1,13,14,15,-1,12,14,13,-1,15,16,17,-1,14,16,15,-1,17,18,19,-1,16,18,17,-1,19,20,21,-1,18,20,19,-1,20,22,21,-1,21,22,23,-1,22,24,23,-1,23,24,25,-1,24,26,25,-1,25,26,27,-1,27,28,29,-1,26,28,27,-1,28,30,29,-1,29,30,31,-1,31,32,33,-1,30,32,31,-1,33,34,35,-1,35,34,36,-1,32,34,33,-1,34,37,36,-1,36,38,39,-1,39,38,40,-1,37,38,36,-1,38,41,40,-1,40,42,43,-1,41,42,40,-1,43,44,45,-1,45,44,46,-1,42,44,43,-1,44,47,46,-1,46,48,49,-1,49,48,50,-1,47,48,46,-1,50,51,2,-1,48,51,50,-1,51,0,2,-1]
coord Coordinate { point [-0.0334645 0 0.7874,-0.0377546 -1.81001e-16 0.822732,-0.0334645 -0.7874 0.7874,-0.0377546 -0.7874 0.822732,-0.0503755 -1.88322e-16 0.856011,-0.0503755 -0.7874 0.856011,-0.0705937 -1.94766e-16 0.885302,-0.0705937 -0.7874 0.885302,-0.0972343 -1.99959e-16 0.908903,-0.0972343 -0.7874 0.908903,-0.128749 -2.03598e-16 0.925443,-0.128749 -0.7874 0.925443,-0.163306 -2.05471e-16 0.933961,-0.163306 -0.7874 0.933961,-0.198898 -2.05471e-16 0.933961,-0.198898 -0.7874 0.933961,-0.233455 -2.03598e-16 0.925443,-0.233455 -0.7874 0.925443,-0.26497 -1.99959e-16 0.908903,-0.26497 -0.7874 0.908903,-0.29161 -1.94766e-16 0.885302,-0.29161 -0.7874 0.885302,-0.311829 -1.88322e-16 0.856011,-0.311829 -0.7874 0.856011,-0.324449 -1.81001e-16 0.822732,-0.324449 -0.7874 0.822732,-0.32874 -1.73228e-16 0.7874,-0.32874 -0.7874 0.7874,-0.324449 -1.65455e-16 0.752068,-0.324449 -0.7874 0.752068,-0.311829 -1.58134e-16 0.718789,-0.311829 -0.7874 0.718789,-0.29161 -1.5169e-16 0.689498,-0.29161 -0.7874 0.689498,-0.26497 -1.46497e-16 0.665897,-0.26497 -0.7874 0.665897,-0.233455 -0.7874 0.649357,-0.233455 -1.42858e-16 0.649357,-0.198898 -1.40985e-16 0.640839,-0.198898 -0.7874 0.640839,-0.163306 -0.7874 0.640839,-0.163306 -1.40985e-16 0.640839,-0.128749 -1.42858e-16 0.649357,-0.128749 -0.7874 0.649357,-0.0972343 -1.46497e-16 0.665897,-0.0972343 -0.7874 0.665897,-0.0705937 -0.7874 0.689498,-0.0705937 -1.5169e-16 0.689498,-0.0503755 -1.58134e-16 0.718789,-0.0503755 -0.7874 0.718789,-0.0377546 -0.7874 0.752068,-0.0377546 -1.65455e-16 0.752068]
}}
appearance Appearance{material USE PLASTIC-WHITE-01 }}
Shape { geometry IndexedFaceSet 
{ creaseAngle 0.50 coordIndex [0,1,2,-1,3,4,5,-1,3,6,4,-1,3,0,7,-1,3,8,1,-1,3,9,8,-1,3,10,9,-1,3,11,10,-1,3,12,11,-1,3,13,12,-1,3,14,13,-1,3,15,14,-1,3,16,15,-1,3,17,16,-1,3,18,17,-1,3,19,18,-1,3,20,19,-1,3,21,20,-1,3,22,21,-1,3,23,22,-1,3,24,23,-1,3,25,24,-1,3,5,25,-1,3,1,0,-1]
coord Coordinate { point [-0.128749 -2.03598e-16 0.925443,-0.198898 -2.05471e-16 0.933961,-0.163306 -2.05471e-16 0.933961,-0.0705937 -1.94766e-16 0.885302,-0.0377546 -1.81001e-16 0.822732,-0.0334645 0 0.7874,-0.0503755 -1.88322e-16 0.856011,-0.0972343 -1.99959e-16 0.908903,-0.233455 -2.03598e-16 0.925443,-0.26497 -1.99959e-16 0.908903,-0.29161 -1.94766e-16 0.885302,-0.311829 -1.88322e-16 0.856011,-0.324449 -1.81001e-16 0.822732,-0.32874 -1.73228e-16 0.7874,-0.324449 -1.65455e-16 0.752068,-0.311829 -1.58134e-16 0.718789,-0.29161 -1.5169e-16 0.689498,-0.26497 -1.46497e-16 0.665897,-0.233455 -1.42858e-16 0.649357,-0.198898 -1.40985e-16 0.640839,-0.163306 -1.40985e-16 0.640839,-0.128749 -1.42858e-16 0.649357,-0.0972343 -1.46497e-16 0.665897,-0.0705937 -1.5169e-16 0.689498,-0.0503755 -1.58134e-16 0.718789,-0.0377546 -1.65455e-16 0.752068]
}}
appearance Appearance{material USE PLASTIC-WHITE-01 }}
Shape { geometry IndexedFaceSet 
{ creaseAngle 0.50 coordIndex [0,1,2,-1,3,4,5,-1,6,4,3,-1,1,4,7,-1,8,4,0,-1,9,4,8,-1,10,4,9,-1,11,4,10,-1,12,4,11,-1,13,4,12,-1,14,4,13,-1,15,4,14,-1,16,4,15,-1,17,4,16,-1,18,4,17,-1,19,4,18,-1,20,4,19,-1,21,4,20,-1,22,4,21,-1,23,4,22,-1,24,4,23,-1,25,4,24,-1,5,4,25,-1,0,4,1,-1]
coord Coordinate { point [-0.198898 -0.7874 0.933961,-0.128749 -0.7874 0.925443,-0.163306 -0.7874 0.933961,-0.0377546 -0.7874 0.822732,-0.0705937 -0.7874 0.885302,-0.0334645 -0.7874 0.7874,-0.0503755 -0.7874 0.856011,-0.0972343 -0.7874 0.908903,-0.233455 -0.7874 0.925443,-0.26497 -0.7874 0.908903,-0.29161 -0.7874 0.885302,-0.311829 -0.7874 0.856011,-0.324449 -0.7874 0.822732,-0.32874 -0.7874 0.7874,-0.324449 -0.7874 0.752068,-0.311829 -0.7874 0.718789,-0.29161 -0.7874 0.689498,-0.26497 -0.7874 0.665897,-0.233455 -0.7874 0.649357,-0.198898 -0.7874 0.640839,-0.163306 -0.7874 0.640839,-0.128749 -0.7874 0.649357,-0.0972343 -0.7874 0.665897,-0.0705937 -0.7874 0.689498,-0.0503755 -0.7874 0.718789,-0.0377546 -0.7874 0.752068]
}}
appearance Appearance{material USE PLASTIC-WHITE-01 }}
